<mxfile host="app.diagrams.net" modified="2020-10-20T08:53:56.120Z" agent="5.0 (Windows NT 10.0; Win64; x64) AppleWebKit/537.36 (KHTML, like Gecko) Chrome/85.0.4183.121 Safari/537.36" etag="2zVj-9zjDahKnqcnL6xA" version="13.8.0" type="gitlab">
  <diagram id="YIh34ZPyO15ATTQrc7tD" name="Page-1">
    <mxGraphModel dx="723" dy="402" grid="1" gridSize="10" guides="1" tooltips="1" connect="1" arrows="1" fold="1" page="1" pageScale="1" pageWidth="827" pageHeight="1169" math="0" shadow="0">
      <root>
        <mxCell id="0" />
        <mxCell id="1" parent="0" />
        <mxCell id="EM9_a063a09Mzgy-qX4A-37" value="frame" style="shape=umlFrame;whiteSpace=wrap;html=1;fontSize=15;dashed=1;dashPattern=1 1;" vertex="1" parent="1">
          <mxGeometry x="80" y="170" width="410" height="140" as="geometry" />
        </mxCell>
        <mxCell id="EM9_a063a09Mzgy-qX4A-1" value="" style="shape=umlLifeline;participant=umlActor;perimeter=lifelinePerimeter;whiteSpace=wrap;html=1;container=1;collapsible=0;recursiveResize=0;verticalAlign=top;spacingTop=36;outlineConnect=0;size=40;" vertex="1" parent="1">
          <mxGeometry x="150" y="102" width="20" height="440" as="geometry" />
        </mxCell>
        <mxCell id="EM9_a063a09Mzgy-qX4A-2" value=":System" style="shape=umlLifeline;perimeter=lifelinePerimeter;whiteSpace=wrap;html=1;container=1;collapsible=0;recursiveResize=0;outlineConnect=0;" vertex="1" parent="1">
          <mxGeometry x="394" y="102" width="100" height="440" as="geometry" />
        </mxCell>
        <mxCell id="EM9_a063a09Mzgy-qX4A-4" value=": Driftslederen" style="text;html=1;align=center;verticalAlign=middle;resizable=0;points=[];autosize=1;" vertex="1" parent="1">
          <mxGeometry x="170" y="110" width="90" height="20" as="geometry" />
        </mxCell>
        <mxCell id="EM9_a063a09Mzgy-qX4A-28" value="Etablere nyt produktionsanlæg" style="text;html=1;align=center;verticalAlign=middle;resizable=0;points=[];autosize=1;fontSize=15;" vertex="1" parent="1">
          <mxGeometry x="194" y="79" width="220" height="20" as="geometry" />
        </mxCell>
        <mxCell id="EM9_a063a09Mzgy-qX4A-32" value="alt" style="shape=umlFrame;whiteSpace=wrap;html=1;fontSize=15;" vertex="1" parent="1">
          <mxGeometry x="80" y="170" width="410" height="200" as="geometry" />
        </mxCell>
        <mxCell id="EM9_a063a09Mzgy-qX4A-38" value="[ Drivhus ]" style="text;html=1;align=center;verticalAlign=middle;resizable=0;points=[];autosize=1;fontSize=11;" vertex="1" parent="1">
          <mxGeometry x="153" y="171" width="70" height="20" as="geometry" />
        </mxCell>
        <mxCell id="EM9_a063a09Mzgy-qX4A-39" value="[ Produktionsbakke ]" style="text;html=1;align=center;verticalAlign=middle;resizable=0;points=[];autosize=1;fontSize=11;" vertex="1" parent="1">
          <mxGeometry x="152" y="312" width="120" height="20" as="geometry" />
        </mxCell>
        <mxCell id="EM9_a063a09Mzgy-qX4A-40" value="opt" style="shape=umlFrame;whiteSpace=wrap;html=1;fontSize=11;" vertex="1" parent="1">
          <mxGeometry x="97.5" y="230" width="365" height="60" as="geometry" />
        </mxCell>
        <mxCell id="EM9_a063a09Mzgy-qX4A-41" value="RegistrérDrivhus(Number)" style="text;html=1;align=center;verticalAlign=middle;resizable=0;points=[];autosize=1;fontSize=11;" vertex="1" parent="1">
          <mxGeometry x="225" y="192" width="140" height="20" as="geometry" />
        </mxCell>
        <mxCell id="EM9_a063a09Mzgy-qX4A-42" value="RegistrérBakke(Number)" style="text;html=1;align=center;verticalAlign=middle;resizable=0;points=[];autosize=1;fontSize=11;" vertex="1" parent="1">
          <mxGeometry x="225" y="252" width="140" height="20" as="geometry" />
        </mxCell>
        <mxCell id="EM9_a063a09Mzgy-qX4A-43" value="RegistrérBakke(Number)" style="text;html=1;align=center;verticalAlign=middle;resizable=0;points=[];autosize=1;fontSize=11;" vertex="1" parent="1">
          <mxGeometry x="225" y="335" width="140" height="20" as="geometry" />
        </mxCell>
        <mxCell id="EM9_a063a09Mzgy-qX4A-44" value="" style="endArrow=classic;html=1;fontSize=11;" edge="1" parent="1" source="EM9_a063a09Mzgy-qX4A-1" target="EM9_a063a09Mzgy-qX4A-2">
          <mxGeometry width="50" height="50" relative="1" as="geometry">
            <mxPoint x="390" y="350" as="sourcePoint" />
            <mxPoint x="440" y="300" as="targetPoint" />
            <Array as="points">
              <mxPoint x="400" y="210" />
            </Array>
          </mxGeometry>
        </mxCell>
        <mxCell id="EM9_a063a09Mzgy-qX4A-45" value="" style="endArrow=classic;html=1;fontSize=11;" edge="1" parent="1">
          <mxGeometry width="50" height="50" relative="1" as="geometry">
            <mxPoint x="159.66666666666652" y="270" as="sourcePoint" />
            <mxPoint x="443.5" y="270" as="targetPoint" />
            <Array as="points">
              <mxPoint x="410" y="270" />
            </Array>
          </mxGeometry>
        </mxCell>
        <mxCell id="EM9_a063a09Mzgy-qX4A-47" value="" style="endArrow=classic;html=1;fontSize=11;" edge="1" parent="1">
          <mxGeometry width="50" height="50" relative="1" as="geometry">
            <mxPoint x="159.66666666666652" y="353" as="sourcePoint" />
            <mxPoint x="443.5" y="353" as="targetPoint" />
            <Array as="points">
              <mxPoint x="400" y="353" />
            </Array>
          </mxGeometry>
        </mxCell>
        <mxCell id="EM9_a063a09Mzgy-qX4A-49" value="[ Produktionsbakke ]" style="text;html=1;align=center;verticalAlign=middle;resizable=0;points=[];autosize=1;fontSize=11;" vertex="1" parent="1">
          <mxGeometry x="153" y="233" width="120" height="20" as="geometry" />
        </mxCell>
      </root>
    </mxGraphModel>
  </diagram>
</mxfile>
